CSV_example/SDS00368.csv

Record Length,Analog:14000,
Sample Interval,Analog:2.000000E-09,
Vertical Units,CH1:V, CH2:V, CH3:V, CH4:V,,
Vertical Scale,CH1:+5.000000E+01, CH2:+5.000000E+00, CH3:+1.000000E+02, CH4:+2.000000E-01,,
Vertical Offset,CH1:+0.000000E+00, CH2:+0.000000E+00, CH3:+0.000000E+00, CH4:+0.000000E+00,,
Horizontal Units,us,
Horizontal Scale,+2.000000E+00,
Model Number,SDS1204X-E,
Serial Number,SDSMMFCC6R3074,
Software Version,8.3.6.1.37R8,
Source,CH1,CH2,CH3,CH4
Second,Value,Value,Value,Value
-1.400000E-05,-4.400000E+01,-2.800000E+00,-1.200000E+01,+4.800000E-02
-1.399800E-05,-4.400000E+01,-2.800000E+00,-1.200000E+01,+4.800000E-02
-1.399600E-05,-4.600000E+01,-2.800000E+00,-1.200000E+01,+5.600000E-02
-1.399400E-05,-4.200000E+01,-2.800000E+00,-1.200000E+01,+4.800000E-02
-1.399200E-05,-4.600000E+01,-2.800000E+00,-8.000000E+00,+5.600000E-02
-1.399000E-05,-4.200000E+01,-2.800000E+00,-8.000000E+00,+4.800000E-02
-1.398800E-05,-4.400000E+01,-2.800000E+00,-4.000000E+00,+4.800000E-02
-1.398600E-05,-4.400000E+01,-2.800000E+00,-8.000000E+00,+4.800000E-02
-1.398400E-05,-4.200000E+01,-2.800000E+00,+0.000000E+00,+5.600000E-02
-1.398200E-05,-4.400000E+01,-3.000000E+00,-8.000000E+00,+5.600000E-02
-1.398000E-05,-4.200000E+01,-3.000000E+00,-4.000000E+00,+5.600000E-02
-1.397800E-05,-4.200000E+01,-3.000000E+00,-4.000000E+00,+5.600000E-02
-1.397600E-05,-4.400000E+01,-3.000000E+00,-4.000000E+00,+5.600000E-02
-1.397400E-05,-4.200000E+01,-2.800000E+00,-4.000000E+00,+5.600000E-02
-1.397200E-05,-4.600000E+01,-3.000000E+00,+0.000000E+00,+4.800000E-02
-1.397000E-05,-4.400000E+01,-2.800000E+00,-4.000000E+00,+5.600000E-02
-1.396800E-05,-4.600000E+01,-3.200000E+00,+0.000000E+00,+5.600000E-02
-1.396600E-05,-4.200000E+01,-3.200000E+00,+0.000000E+00,+5.600000E-02
-1.396400E-05,-4.400000E+01,-3.000000E+00,-4.000000E+00,+5.600000E-02
-1.396200E-05,-4.400000E+01,-3.200000E+00,+0.000000E+00,+5.600000E-02
-1.396000E-05,-4.600000E+01,-3.000000E+00,+0.000000E+00,+4.800000E-02
-1.395800E-05,-4.400000E+01,-3.200000E+00,-4.000000E+00,+5.600000E-02
-1.395600E-05,-4.400000E+01,-3.200000E+00,+0.000000E+00,+5.600000E-02
-1.395400E-05,-4.200000E+01,-3.200000E+00,+0.000000E+00,+5.600000E-02
-1.395200E-05,-4.400000E+01,-3.400000E+00,+0.000000E+00,+5.600000E-02
-1.395000E-05,-4.400000E+01,-3.400000E+00,+0.000000E+00,+5.600000E-02
-1.394800E-05,-4.400000E+01,-3.400000E+00,+0.000000E+00,+4.800000E-02
-1.394600E-05,-4.400000E+01,-3.400000E+00,+0.000000E+00,+5.600000E-02
-1.394400E-05,-4.200000E+01,-3.400000E+00,+4.000000E+00,+5.600000E-02
-1.394200E-05,-4.400000E+01,-3.400000E+00,+4.000000E+00,+5.600000E-02
-1.394000E-05,-4.600000E+01,-3.400000E+00,+0.000000E+00,+5.600000E-02
-1.393800E-05,-4.200000E+01,-3.400000E+00,+8.000000E+00,+5.600000E-02
-1.393600E-05,-4.600000E+01,-3.400000E+00,+8.000000E+00,+5.600000E-02
-1.393400E-05,-4.400000E+01,-3.400000E+00,+4.000000E+00,+5.600000E-02
-1.393200E-05,-4.400000E+01,-3.600000E+00,+4.000000E+00,+5.600000E-02
-1.393000E-05,-4.600000E+01,-3.600000E+00,+8.000000E+00,+5.600000E-02
-1.392800E-05,-4.400000E+01,-3.600000E+00,+8.000000E+00,+6.400000E-02
-1.392600E-05,-4.600000E+01,-3.600000E+00,+8.000000E+00,+6.400000E-02
-1.392400E-05,-4.600000E+01,-3.400000E+00,+8.000000E+00,+6.400000E-02
-1.392200E-05,-4.400000E+01,-3.600000E+00,+1.200000E+01,+5.600000E-02
-1.392000E-05,-4.400000E+01,-3.800000E+00,+1.200000E+01,+5.600000E-02
-1.391800E-05,-4.600000E+01,-3.600000E+00,+1.200000E+01,+5.600000E-02
-1.391600E-05,-4.600000E+01,-3.800000E+00,+1.200000E+01,+4.800000E-02
-1.391400E-05,-4.400000E+01,-3.600000E+00,+1.200000E+01,+6.400000E-02
-1.391200E-05,-4.400000E+01,-3.800000E+00,+1.200000E+01,+6.400000E-02
-1.391000E-05,-4.200000E+01,-3.800000E+00,+1.600000E+01,+5.600000E-02
-1.390800E-05,-4.600000E+01,-3.600000E+00,+1.600000E+01,+5.600000E-02
-1.390600E-05,-4.400000E+01,-3.800000E+00,+1.600000E+01,+6.400000E-02
-1.390400E-05,-4.600000E+01,-4.000000E+00,+1.600000E+01,+5.600000E-02
-1.390200E-05,-4.400000E+01,-4.000000E+00,+1.200000E+01,+6.400000E-02
-1.390000E-05,-4.400000E+01,-4.000000E+00,+1.200000E+01,+5.600000E-02
-1.389800E-05,-4.600000E+01,-4.000000E+00,+1.600000E+01,+5.600000E-02
-1.389600E-05,-4.600000E+01,-3.800000E+00,+1.600000E+01,+6.400000E-02
-1.389400E-05,-4.600000E+01,-4.000000E+00,+2.000000E+01,+5.600000E-02
-1.389200E-05,-4.600000E+01,-4.000000E+00,+2.000000E+01,+6.400000E-02
-1.389000E-05,-4.600000E+01,-4.000000E+00,+2.000000E+01,+6.400000E-02
-1.388800E-05,-4.600000E+01,-4.000000E+00,+2.000000E+01,+6.400000E-02
-1.388600E-05,-4.600000E+01,-4.200000E+00,+2.000000E+01,+5.600000E-02
-1.388400E-05,-4.600000E+01,-4.200000E+00,+2.000000E+01,+6.400000E-02
-1.388200E-05,-4.600000E+01,-4.200000E+00,+2.000000E+01,+5.600000E-02
-1.388000E-05,-4.400000E+01,-4.200000E+00,+2.000000E+01,+6.400000E-02
-1.387800E-05,-4.200000E+01,-4.200000E+00,+2.400000E+01,+6.400000E-02
-1.387600E-05,-4.600000E+01,-4.200000E+00,+2.400000E+01,+6.400000E-02
-1.387400E-05,-4.200000E+01,-4.200000E+00,+2.400000E+01,+6.400000E-02
-1.387200E-05,-4.400000E+01,-4.400000E+00,+2.400000E+01,+6.400000E-02
-1.387000E-05,-4.600000E+01,-4.200000E+00,+2.400000E+01,+6.400000E-02
-1.386800E-05,-4.400000E+01,-4.400000E+00,+2.400000E+01,+6.400000E-02
-1.386600E-05,-4.600000E+01,-4.400000E+00,+2.400000E+01,+6.400000E-02
-1.386400E-05,-4.400000E+01,-4.200000E+00,+2.800000E+01,+6.400000E-02
-1.386200E-05,-4.600000E+01,-4.400000E+00,+2.800000E+01,+5.600000E-02
-1.386000E-05,-4.600000E+01,-4.200000E+00,+2.800000E+01,+5.600000E-02
-1.385800E-05,-4.600000E+01,-4.600000E+00,+2.800000E+01,+6.400000E-02
-1.385600E-05,-4.600000E+01,-4.400000E+00,+2.800000E+01,+6.400000E-02
-1.385400E-05,-4.400000E+01,-4.400000E+00,+2.400000E+01,+6.400000E-02
-1.385200E-05,-4.600000E+01,-4.600000E+00,+2.800000E+01,+6.400000E-02
-1.385000E-05,-4.600000E+01,-4.400000E+00,+3.200000E+01,+6.400000E-02
-1.384800E-05,-4.600000E+01,-4.600000E+00,+3.200000E+01,+6.400000E-02
-1.384600E-05,-4.400000E+01,-4.600000E+00,+3.600000E+01,+6.400000E-02
-1.384400E-05,-4.200000E+01,-4.600000E+00,+3.200000E+01,+7.200000E-02
-1.384200E-05,-4.200000E+01,-4.600000E+00,+3.600000E+01,+6.400000E-02
-1.384000E-05,-4.600000E+01,-4.600000E+00,+3.600000E+01,+6.400000E-02
-1.383800E-05,-4.400000E+01,-4.800000E+00,+3.600000E+01,+6.400000E-02
-1.383600E-05,-4.400000E+01,-4.800000E+00,+3.600000E+01,+6.400000E-02
-1.383400E-05,-4.400000E+01,-4.800000E+00,+3.600000E+01,+6.400000E-02
-1.383200E-05,-4.400000E+01,-4.600000E+00,+3.600000E+01,+7.200000E-02
-1.383000E-05,-4.600000E+01,-4.800000E+00,+3.600000E+01,+6.400000E-02
-1.382800E-05,-4.600000E+01,-4.800000E+00,+3.600000E+01,+7.200000E-02
-1.382600E-05,-4.600000E+01,-4.800000E+00,+4.000000E+01,+6.400000E-02
-1.382400E-05,-4.400000E+01,-4.800000E+00,+3.600000E+01,+7.200000E-02
-1.382200E-05,-4.600000E+01,-4.800000E+00,+4.000000E+01,+7.200000E-02
-1.382000E-05,-4.400000E+01,-5.000000E+00,+4.000000E+01,+7.200000E-02
-1.381800E-05,-4.400000E+01,-4.600000E+00,+4.400000E+01,+6.400000E-02
-1.381600E-05,-4.400000E+01,-5.000000E+00,+4.400000E+01,+6.400000E-02
-1.381400E-05,-4.400000E+01,-5.000000E+00,+4.000000E+01,+6.400000E-02
-1.381200E-05,-4.400000E+01,-5.000000E+00,+4.000000E+01,+7.200000E-02
-1.381000E-05,-4.400000E+01,-4.800000E+00,+4.400000E+01,+6.400000E-02
-1.380800E-05,-4.400000E+01,-5.000000E+00,+4.400000E+01,+7.200000E-02
-1.380600E-05,-4.400000E+01,-5.000000E+00,+4.400000E+01,+7.200000E-02
-1.380400E-05,-4.600000E+01,-5.200000E+00,+4.400000E+01,+6.400000E-02
-1.380200E-05,-4.400000E+01,-5.000000E+00,+4.400000E+01,+7.200000E-02
-1.380000E-05,-4.600000E+01,-5.200000E+00,+4.400000E+01,+7.200000E-02
-1.379800E-05,-4.600000E+01,-5.200000E+00,+4.800000E+01,+7.200000E-02
-1.379600E-05,-4.400000E+01,-5.200000E+00,+4.800000E+01,+6.400000E-02
-1.379400E-05,-4.600000E+01,-5.200000E+00,+4.800000E+01,+7.200000E-02
-1.379200E-05,-4.600000E+01,-5.200000E+00,+4.800000E+01,+7.200000E-02
-1.379000E-05,-4.400000E+01,-5.200000E+00,+4.800000E+01,+7.200000E-02
-1.378800E-05,-4.600000E+01,-5.200000E+00,+4.800000E+01,+7.200000E-02
-1.378600E-05,-4.400000E+01,-5.200000E+00,+4.800000E+01,+6.400000E-02
-1.378400E-05,-4.600000E+01,-5.200000E+00,+5.200000E+01,+7.200000E-02
-1.378200E-05,-4.400000E+01,-5.400000E+00,+5.600000E+01,+7.200000E-02
-1.378000E-05,-4.400000E+01,-5.400000E+00,+5.200000E+01,+7.200000E-02
-1.377800E-05,-4.400000E+01,-5.400000E+00,+5.600000E+01,+6.400000E-02
-1.377600E-05,-4.600000E+01,-5.200000E+00,+5.600000E+01,+7.200000E-02
-1.377400E-05,-4.400000E+01,-5.400000E+00,+5.600000E+01,+7.200000E-02
-1.377200E-05,-4.600000E+01,-5.400000E+00,+5.600000E+01,+6.400000E-02
-1.377000E-05,-4.400000E+01,-5.400000E+00,+6.000000E+01,+8.000000E-02
-1.376800E-05,-4.400000E+01,-5.600000E+00,+5.600000E+01,+8.000000E-02
-1.376600E-05,-4.400000E+01,-5.600000E+00,+6.000000E+01,+7.200000E-02
-1.376400E-05,-4.600000E+01,-5.600000E+00,+6.000000E+01,+7.200000E-02
-1.376200E-05,-4.400000E+01,-5.600000E+00,+6.000000E+01,+7.200000E-02
-1.376000E-05,-4.600000E+01,-5.600000E+00,+6.000000E+01,+6.400000E-02
-1.375800E-05,-4.600000E+01,-5.600000E+00,+6.400000E+01,+7.200000E-02
-1.375600E-05,-4.600000E+01,-5.600000E+00,+6.000000E+01,+6.400000E-02
-1.375400E-05,-4.400000E+01,-5.600000E+00,+6.400000E+01,+7.200000E-02
-1.375200E-05,-4.600000E+01,-5.800000E+00,+6.400000E+01,+7.200000E-02
-1.375000E-05,-4.200000E+01,-5.800000E+00,+6.400000E+01,+7.200000E-02
-1.374800E-05,-4.600000E+01,-5.800000E+00,+6.400000E+01,+8.000000E-02
-1.374600E-05,-4.400000E+01,-5.800000E+00,+6.800000E+01,+8.000000E-02
-1.374400E-05,-4.400000E+01,-5.800000E+00,+6.400000E+01,+8.800000E-02
-1.374200E-05,-4.200000E+01,-5.800000E+00,+6.400000E+01,+8.800000E-02
-1.374000E-05,-4.200000E+01,-5.800000E+00,+6.400000E+01,+9.599999E-02
-1.373800E-05,-4.400000E+01,-5.800000E+00,+6.800000E+01,+9.599999E-02
-1.373600E-05,-4.600000E+01,-5.600000E+00,+6.800000E+01,+1.120000E-01
-1.373400E-05,-4.400000E+01,-6.000000E+00,+6.800000E+01,+1.200000E-01
-1.373200E-05,-4.400000E+01,-6.000000E+00,+6.800000E+01,+1.280000E-01
-1.373000E-05,-4.400000E+01,-5.800000E+00,+6.800000E+01,+1.280000E-01
-1.372800E-05,-4.600000E+01,-5.800000E+00,+7.200001E+01,+1.200000E-01
-1.372600E-05,-4.400000E+01,-6.000000E+00,+6.800000E+01,+1.280000E-01
-1.372400E-05,-4.600000E+01,-6.000000E+00,+6.800000E+01,+1.200000E-01
-1.372200E-05,-4.400000E+01,-6.000000E+00,+7.200001E+01,+1.280000E-01
-1.372000E-05,-4.600000E+01,-6.000000E+00,+7.200001E+01,+1.360000E-01
-1.371800E-05,-4.400000E+01,-6.000000E+00,+7.600001E+01,+1.360000E-01
-1.371600E-05,-4.600000E+01,-6.000000E+00,+7.600001E+01,+1.440000E-01
-1.371400E-05,-4.400000E+01,-6.200000E+00,+7.200001E+01,+1.440000E-01
-1.371200E-05,-4.400000E+01,-6.200000E+00,+7.600001E+01,+1.360000E-01
-1.371000E-05,-4.400000E+01,-6.200000E+00,+7.200001E+01,+1.520000E-01
-1.370800E-05,-4.200000E+01,-6.200000E+00,+7.200001E+01,+1.440000E-01
-1.370600E-05,-4.400000E+01,-6.200000E+00,+7.600001E+01,+1.440000E-01
-1.370400E-05,-4.400000E+01,-6.200000E+00,+7.600001E+01,+1.440000E-01
-1.370200E-05,-4.400000E+01,-6.200000E+00,+7.600001E+01,+1.440000E-01
-1.370000E-05,-4.600000E+01,-6.200000E+00,+7.600001E+01,+1.440000E-01
-1.369800E-05,-4.400000E+01,-6.200000E+00,+7.600001E+01,+1.440000E-01
-1.369600E-05,-4.400000E+01,-6.400000E+00,+7.600001E+01,+1.440000E-01
-1.369400E-05,-4.400000E+01,-6.400000E+00,+7.600001E+01,+1.520000E-01
-1.369200E-05,-4.600000E+01,-6.400000E+00,+7.600001E+01,+1.520000E-01
-1.369000E-05,-4.400000E+01,-6.400000E+00,+8.000001E+01,+1.520000E-01
-1.368800E-05,-4.600000E+01,-6.400000E+00,+7.600001E+01,+1.520000E-01
-1.368600E-05,-4.600000E+01,-6.400000E+00,+8.000001E+01,+1.520000E-01
-1.368400E-05,-4.600000E+01,-6.400000E+00,+8.000001E+01,+1.520000E-01
-1.368200E-05,-4.400000E+01,-6.400000E+00,+8.000001E+01,+1.520000E-01
-1.368000E-05,-4.600000E+01,-6.400000E+00,+8.400001E+01,+1.520000E-01
-1.367800E-05,-4.400000E+01,-6.400000E+00,+8.400001E+01,+1.600000E-01
-1.367600E-05,-4.400000E+01,-6.599999E+00,+8.400001E+01,+1.600000E-01
-1.367400E-05,-4.200000E+01,-6.599999E+00,+8.000001E+01,+1.600000E-01
-1.367200E-05,-4.600000E+01,-6.599999E+00,+8.400001E+01,+1.680000E-01
-1.367000E-05,-4.400000E+01,-6.400000E+00,+8.400001E+01,+1.680000E-01
-1.366800E-05,-4.200000E+01,-6.400000E+00,+8.000001E+01,+1.760000E-01
-1.366600E-05,-4.400000E+01,-6.599999E+00,+8.000001E+01,+1.600000E-01
-1.366400E-05,-4.400000E+01,-6.599999E+00,+8.400001E+01,+1.680000E-01
-1.366200E-05,-4.200000E+01,-6.599999E+00,+8.400001E+01,+1.680000E-01
-1.366000E-05,-4.600000E+01,-6.400000E+00,+8.400001E+01,+1.680000E-01
-1.365800E-05,-4.200000E+01,-6.800000E+00,+8.400001E+01,+1.520000E-01
-1.365600E-05,-4.600000E+01,-6.599999E+00,+8.800001E+01,+1.680000E-01
-1.365400E-05,-4.400000E+01,-6.800000E+00,+8.800001E+01,+1.680000E-01
-1.365200E-05,-4.400000E+01,-6.800000E+00,+8.400001E+01,+1.760000E-01
-1.365000E-05,-4.200000E+01,-6.599999E+00,+8.800001E+01,+1.760000E-01
-1.364800E-05,-4.400000E+01,-6.800000E+00,+8.800001E+01,+1.760000E-01
-1.364600E-05,-4.400000E+01,-6.599999E+00,+8.400001E+01,+1.760000E-01
-1.364400E-05,-4.600000E+01,-6.800000E+00,+8.800001E+01,+1.680000E-01
-1.364200E-05,-4.400000E+01,-6.800000E+00,+8.800001E+01,+1.680000E-01
-1.364000E-05,-4.400000E+01,-6.800000E+00,+8.400001E+01,+1.760000E-01
-1.363800E-05,-4.400000E+01,-7.000000E+00,+8.800001E+01,+1.680000E-01
-1.363600E-05,-4.600000E+01,-6.800000E+00,+8.800001E+01,+1.760000E-01
-1.363400E-05,-4.400000E+01,-6.800000E+00,+9.200001E+01,+1.680000E-01
-1.363200E-05,-4.600000E+01,-7.000000E+00,+9.200001E+01,+1.840000E-01
-1.363000E-05,-4.400000E+01,-7.000000E+00,+9.200001E+01,+1.840000E-01
-1.362800E-05,-4.600000E+01,-7.000000E+00,+8.800001E+01,+1.840000E-01
-1.362600E-05,-4.200000E+01,-6.800000E+00,+8.800001E+01,+1.840000E-01
-1.362400E-05,-4.400000E+01,-7.000000E+00,+9.200001E+01,+1.760000E-01
-1.362200E-05,-4.600000E+01,-7.000000E+00,+9.200001E+01,+1.760000E-01
-1.362000E-05,-4.600000E+01,-7.000000E+00,+9.200001E+01,+1.840000E-01
-1.361800E-05,-4.400000E+01,-7.000000E+00,+9.200001E+01,+1.840000E-01
-1.361600E-05,-4.400000E+01,-7.200000E+00,+8.800001E+01,+1.840000E-01
-1.361400E-05,-4.600000E+01,-7.200000E+00,+9.200001E+01,+1.840000E-01
-1.361200E-05,-4.600000E+01,-7.200000E+00,+9.200001E+01,+1.920000E-01
-1.361000E-05,-4.400000E+01,-7.200000E+00,+9.200001E+01,+1.760000E-01
-1.360800E-05,-4.600000E+01,-7.200000E+00,+9.200001E+01,+1.760000E-01
-1.360600E-05,-4.400000E+01,-7.200000E+00,+9.600000E+01,+1.840000E-01
-1.360400E-05,-4.400000E+01,-7.200000E+00,+9.600000E+01,+1.920000E-01
-1.360200E-05,-4.600000E+01,-7.000000E+00,+9.600000E+01,+1.840000E-01
-1.360000E-05,-4.600000E+01,-7.000000E+00,+9.600000E+01,+1.920000E-01
-1.359800E-05,-4.600000E+01,-7.400000E+00,+9.600000E+01,+1.920000E-01
-1.359600E-05,-4.600000E+01,-7.400000E+00,+1.000000E+02,+1.920000E-01
-1.359400E-05,-4.600000E+01,-7.400000E+00,+9.600000E+01,+1.920000E-01
-1.359200E-05,-4.400000E+01,-7.400000E+00,+9.200001E+01,+1.840000E-01
-1.359000E-05,-4.600000E+01,-7.400000E+00,+1.000000E+02,+1.920000E-01
-1.358800E-05,-4.600000E+01,-7.400000E+00,+9.200001E+01,+2.000000E-01
-1.358600E-05,-4.400000E+01,-7.400000E+00,+1.000000E+02,+1.920000E-01
-1.358400E-05,-4.600000E+01,-7.400000E+00,+9.600000E+01,+2.000000E-01
-1.358200E-05,-4.400000E+01,-7.200000E+00,+1.000000E+02,+1.920000E-01
-1.358000E-05,-4.600000E+01,-7.400000E+00,+1.000000E+02,+2.000000E-01
-1.357800E-05,-4.400000E+01,-7.400000E+00,+1.000000E+02,+1.840000E-01
-1.357600E-05,-4.600000E+01,-7.600000E+00,+1.000000E+02,+2.000000E-01
-1.357400E-05,-4.600000E+01,-7.600000E+00,+1.040000E+02,+1.840000E-01
-1.357200E-05,-4.400000E+01,-7.400000E+00,+1.040000E+02,+1.920000E-01
-1.357000E-05,-4.600000E+01,-7.600000E+00,+1.000000E+02,+1.840000E-01
-1.356800E-05,-4.600000E+01,-7.600000E+00,+1.000000E+02,+2.000000E-01
-1.356600E-05,-4.600000E+01,-7.600000E+00,+1.000000E+02,+2.000000E-01
-1.356400E-05,-4.600000E+01,-7.600000E+00,+9.600000E+01,+2.000000E-01
-1.356200E-05,-4.600000E+01,-7.400000E+00,+1.000000E+02,+2.000000E-01
-1.356000E-05,-4.600000E+01,-7.600000E+00,+1.000000E+02,+1.920000E-01
-1.355800E-05,-4.600000E+01,-7.600000E+00,+1.040000E+02,+2.080000E-01
-1.355600E-05,-4.600000E+01,-7.800000E+00,+1.000000E+02,+2.000000E-01
-1.355400E-05,-4.600000E+01,-7.400000E+00,+1.000000E+02,+2.000000E-01
-1.355200E-05,-4.600000E+01,-7.800000E+00,+1.040000E+02,+2.000000E-01
-1.355000E-05,-4.600000E+01,-7.800000E+00,+1.040000E+02,+2.000000E-01
-1.354800E-05,-4.600000E+01,-7.800000E+00,+1.040000E+02,+2.000000E-01
-1.354600E-05,-4.600000E+01,-7.800000E+00,+1.000000E+02,+2.080000E-01
-1.354400E-05,-4.600000E+01,-7.800000E+00,+1.040000E+02,+2.000000E-01
-1.354200E-05,-4.600000E+01,-7.800000E+00,+1.000000E+02,+2.000000E-01
-1.354000E-05,-4.600000E+01,-7.800000E+00,+1.040000E+02,+2.160000E-01
-1.353800E-05,-4.400000E+01,-7.800000E+00,+1.080000E+02,+2.160000E-01
-1.353600E-05,-4.600000E+01,-8.000000E+00,+1.000000E+02,+2.000000E-01
-1.353400E-05,-4.600000E+01,-7.800000E+00,+1.040000E+02,+2.080000E-01
-1.353200E-05,-4.600000E+01,-8.000000E+00,+1.040000E+02,+2.160000E-01
-1.353000E-05,-4.400000E+01,-8.000000E+00,+1.080000E+02,+2.080000E-01
-1.352800E-05,-4.400000E+01,-8.000000E+00,+1.080000E+02,+2.240000E-01
-1.352600E-05,-4.600000E+01,-7.800000E+00,+1.040000E+02,+2.080000E-01
-1.352400E-05,-4.400000E+01,-7.800000E+00,+1.080000E+02,+2.160000E-01
-1.352200E-05,-4.600000E+01,-8.000000E+00,+1.080000E+02,+2.160000E-01
-1.352000E-05,-4.400000E+01,-8.000000E+00,+1.120000E+02,+2.160000E-01
-1.351800E-05,-4.400000E+01,-8.000000E+00,+1.120000E+02,+2.160000E-01
-1.351600E-05,-4.600000E+01,-7.800000E+00,+1.080000E+02,+2.160000E-01
-1.351400E-05,-4.400000E+01,-7.800000E+00,+1.080000E+02,+2.080000E-01
-1.351200E-05,-4.600000E+01,-8.000000E+00,+1.120000E+02,+2.240000E-01
-1.351000E-05,-4.400000E+01,-8.200000E+00,+1.120000E+02,+2.080000E-01
-1.350800E-05,-4.400000E+01,-8.200000E+00,+1.120000E+02,+2.240000E-01
-1.350600E-05,-4.400000E+01,-8.000000E+00,+1.080000E+02,+2.080000E-01
-1.350400E-05,-4.600000E+01,-8.000000E+00,+1.120000E+02,+2.160000E-01
-1.350200E-05,-4.600000E+01,-8.200000E+00,+1.160000E+02,+2.240000E-01
-1.350000E-05,-4.400000E+01,-8.200000E+00,+1.120000E+02,+2.160000E-01
-1.349800E-05,-4.400000E+01,-8.200000E+00,+1.120000E+02,+2.240000E-01
-1.349600E-05,-4.400000E+01,-8.200000E+00,+1.120000E+02,+2.160000E-01
-1.349400E-05,-4.600000E+01,-8.000000E+00,+1.120000E+02,+2.240000E-01
-1.349200E-05,-4.600000E+01,-8.200000E+00,+1.160000E+02,+2.240000E-01
-1.349000E-05,-4.600000E+01,-8.000000E+00,+1.120000E+02,+2.160000E-01
-1.348800E-05,-4.400000E+01,-8.200000E+00,+1.160000E+02,+2.240000E-01
-1.348600E-05,-4.400000E+01,-8.400000E+00,+1.120000E+02,+2.240000E-01
-1.348400E-05,-4.800000E+01,-8.200000E+00,+1.120000E+02,+2.160000E-01
-1.348200E-05,-4.600000E+01,-8.200000E+00,+1.160000E+02,+2.240000E-01
-1.348000E-05,-4.600000E+01,-8.400000E+00,+1.120000E+02,+2.320000E-01
-1.347800E-05,-4.600000E+01,-8.400000E+00,+1.160000E+02,+2.240000E-01
-1.347600E-05,-4.600000E+01,-8.400000E+00,+1.160000E+02,+2.320000E-01
-1.347400E-05,-4.600000E+01,-8.200000E+00,+1.160000E+02,+2.320000E-01
-1.347200E-05,-4.800000E+01,-8.200000E+00,+1.160000E+02,+2.240000E-01
-1.347000E-05,-4.600000E+01,-8.400000E+00,+1.160000E+02,+2.240000E-01
-1.346800E-05,-4.600000E+01,-8.599999E+00,+1.160000E+02,+2.240000E-01
-1.346600E-05,-4.600000E+01,-8.400000E+00,+1.160000E+02,+2.320000E-01
-1.346400E-05,-4.600000E+01,-8.599999E+00,+1.160000E+02,+2.240000E-01
-1.346200E-05,-4.600000E+01,-8.599999E+00,+1.160000E+02,+2.240000E-01
-1.346000E-05,-4.400000E+01,-8.599999E+00,+1.160000E+02,+2.320000E-01
-1.345800E-05,-4.400000E+01,-8.599999E+00,+1.160000E+02,+2.240000E-01
-1.345600E-05,-4.800000E+01,-8.400000E+00,+1.200000E+02,+2.320000E-01
-1.345400E-05,-4.400000E+01,-8.599999E+00,+1.160000E+02,+2.320000E-01
-1.345200E-05,-4.800000E+01,-8.599999E+00,+1.200000E+02,+2.240000E-01
-1.345000E-05,-4.600000E+01,-8.599999E+00,+1.160000E+02,+2.320000E-01
-1.344800E-05,-4.600000E+01,-8.400000E+00,+1.200000E+02,+2.320000E-01
-1.344600E-05,-4.600000E+01,-8.599999E+00,+1.240000E+02,+2.320000E-01
